Análisis de Componentes Principales - datos `USairpollution` | Alberto Torrejón Valenzuela
…
Echemos un vistazo a los componentes principales calculados por nuestra receta. El paquete de recipes de tidymodels tiene una función llamada juice, “jugo”, que devolverá los resultados de una receta creada por prep.

juice(pca_estimates) 

# A tibble: 41 × 5
       PC1     PC2    PC3     PC4     PC5
     <dbl>   <dbl>  <dbl>   <dbl>   <dbl>
 1 -2.68   -3.84    1.05  -1.52    0.0327
 2 -1.70    0.477   0.840 -0.192   0.140 
 3 -0.927  -2.21   -0.181 -0.151  -0.183 
 4 -0.543  -1.95   -1.21  -0.418  -0.379 
 5  0.455   1.08   -0.582 -0.927   0.734 
 6 -0.689   0.624  -0.416 -0.483   0.538 
 7 -0.0456 -0.0503  0.350  0.0435 -0.0290
 8 -1.36    0.927   1.84   0.449   0.0137
 9 -1.69    1.49    2.55   0.819   0.0562
10 -0.611   0.630   0.976  0.194   0.111 
# ℹ 31 more rows
…
